{
	"clientID": "owG/oqn2PE51Bj4lZHAOFA==",
	"serverToken": "1@3QRm1Tfnq4keJ5FefI2QXcltko/RjUpu3c4ZrO8T2ztRjiFObMkP1cfKhe4uBP4XS8RiTWm/xe3V8Q==",
	"clientToken": "DDHA+2jB7HOf+m4gLcJFjwyGW8kejlkBH0AiD//UlEI=",
	"encKey": "IJD+PeBGMlIh18SevGCetpg4L/mNp7UG5R4bLnm+/iU=",
	"macKey": "QWAC6G8XVseik+6ntT8ChTwUHtHvKms4zL7GqC90r7Q="
}